…
firefly_data <- read_csv("https://whitlockschluter.zoology.ubc.ca/wp-content/data/chapter02/chap02q19FireflySpermatophoreMass.csv")
```

    ## 
    ## ── Column specification ────────────────────────────────────────────────────────
    ## cols(
    ##   spermatophoreMass = col_double()
    ## )

``` r
firefly_data # Confirming data was correct
```

    ## # A tibble: 35 x 1
    ##    spermatophoreMass
    ##                <dbl>
    ##  1             0.047
    ##  2             0.037
    ##  3             0.041
    ##  4             0.045
    ##  5             0.039
    ##  6             0.064
    ##  7             0.064
    ##  8             0.065
    ##  9             0.079
    ## 10             0.07 
    ## # … with 25 more rows
…
